^D:\DEVELOP\PRACTICALWORK\PRACTICALWORK_3.2\PRACTICALWORK_3.2\PRACTICALWORK_3.2.CPP
D:\DEVELOP\PRACTICALWORK\PRACTICALWORK_3.2\PRACTICALWORK_3.2\X64\DEBUG\VC143.PDB
D:\DEVELOP\PRACTICALWORK\PRACTICALWORK_3.2\PRACTICALWORK_3.2\X64\DEBUG\VC143.IDB
D:\DEVELOP\PRACTICALWORK\PRACTICALWORK_3.2\PRACTICALWORK_3.2\X64\DEBUG\PRACTICALWORK_3.2.OBJ
